…
In your assignment, prepare an RMarkdown file that includes both the
coding and (for 4-7) narrative descriptions of your results.

## 1) Inspect the item responses (e.g., with graphs or by summarizing distinct values). Is anything unusual?

``` r
print(green_data) # BMW: Dont' print whole datasets in your final report
```

    ## # A tibble: 373 x 37
    ##    id    green1 green2 green3 green4 green5 comp1 comp2 comp3 comp4 comp5 comp6
    ##    <chr>  <dbl>  <dbl>  <dbl>  <dbl>  <dbl> <dbl> <dbl> <dbl> <dbl> <dbl> <dbl>
    ##  1 9099       4      2      5      4      3     2     5     4     4     2     2
    ##  2 6275       3      5      3      3      1     4     5     4     5     5     1
    ##  3 8116       4      2      5      4      3     4     5     5     4     5     1
    ##  4 8586       4      3      5      4      3     4     5     5     4     5     1
    ##  5 0406       3      2      4      4      4     4     4     4     4     4     2
    ##  6 5645       4      3      4      4      3     5     5     5     4     4     2
    ##  7 3788       1      1      1      1      1     3     3     3     3     3     3
    ##  8 8424       4      3      2      2      2     1     1     1     2     2     4
    ##  9 8450       4      2      3      5      2     4     4     4     4     4     1
    ## 10 0512       4      2      5      5      4     5     2     5     4     2     2
    ## # ... with 363 more rows, and 25 more variables: comp7 <dbl>, comp8 <dbl>,
    ## #   comp9 <dbl>, comp10 <dbl>, intel1 <dbl>, intel2 <dbl>, intel3 <dbl>,
    ## #   intel4 <dbl>, intel5 <dbl>, intel6 <dbl>, intel7 <dbl>, intel8 <dbl>,
    ## #   intel9 <dbl>, intel10 <dbl>, open1 <dbl>, open2 <dbl>, open3 <dbl>,
    ## #   open4 <dbl>, open5 <dbl>, open6 <dbl>, open7 <dbl>, open8 <dbl>,
    ## #   open9 <dbl>, open10 <dbl>, student <dbl>
…
